317N/C              100KB -1    D 280PA00X   2269Y   6814X 600Y 600             
317N/C              100KB -2    D 280PA00X   2528Y   7779X 600Y 600             
317N/C              100KB -3    D 280PA00X   2786Y   8745X 600Y 600             
317N/C              220   -1    D 280PA00X   5319Y   5776X 600Y 600             
317N/C              220   -2    D 280PA00X   2500Y   4750X 600Y 600             
317N/C              10uF  -1    D 280PA00X   5000Y   8000X 600Y 600             
317N/C              10uF  -2    D 280PA00X   5000Y   9000X 600Y 600             
317N/C              4093  -1    D 280PA00X   7361Y   8492X 600Y 600             
317N/C              4093  -10   D 280PA00X   9224Y   3852X 600Y 600             
317N/C              4093  -11   D 280PA00X   9482Y   4818X 600Y 600             
317N/C              4093  -12   D 280PA00X   9741Y   5784X 600Y 600             
317N/C              4093  -13   D 280PA00X  10000Y   6750X 600Y 600             
317N/C              4093  -14   D 280PA00X  10259Y   7716X 600Y 600             
317N/C              4093  -2    D 280PA00X   7102Y   7526X 600Y 600             
317N/C              4093  -3    D 280PA00X   6843Y   6561X 600Y 600             
317N/C              4093  -4    D 280PA00X   6585Y   5595X 600Y 600             
317N/C              4093  -5    D 280PA00X   6326Y   4629X 600Y 600             
317N/C              4093  -6    D 280PA00X   6067Y   3663X 600Y 600             
317N/C              4093  -7    D 280PA00X   5808Y   2697X 600Y 600             
317N/C              4093  -8    D 280PA00X   8706Y   1920X 600Y 600             
317N/C              4093  -9    D 280PA00X   8965Y   2886X 600Y 600             
317N/C              914   -1    D 280PA00X  10102Y   9526X 600Y 600             
317N/C              914   -2    D 280PA00X  13000Y   8750X 600Y 600             
317N/C              9V    -1    D 280PA00X  13676Y   6431X 600Y 600             
317N/C              9V    -2    D 280PA00X  14250Y   7250X 600Y 600             
317N/C              U20   -1    D 280PA00X   4016Y   1107X 600Y 600             
317N/C              U20   -2    D 280PA00X   3250Y   1750X 600Y 600             
317N/C              U21   -1    D 280PA00X   2000Y   2500X 600Y 600             
317N/C              U21   -2    D 280PA00X   2000Y   3500X 600Y 600             
999                                                                             
